%YAML 1.1
%TAG !u! tag:unity3d.com,2011:
--- !u!1 &1789997855053645982
GameObject:
  m_ObjectHideFlags: 0
  m_CorrespondingSourceObject: {fileID: 0}
  m_PrefabInstance: {fileID: 0}
  m_PrefabAsset: {fileID: 0}
  serializedVersion: 6
  m_Component:
  - component: {fileID: 3354056133143296653}
  m_Layer: 0
  m_Name: 4 Deer HornRealistic
  m_TagString: Untagged
  m_Icon: {fileID: 0}
  m_NavMeshLayer: 0
  m_StaticEditorFlags: 0
  m_IsActive: 1
--- !u!4 &3354056133143296653
Transform:
  m_ObjectHideFlags: 0
  m_CorrespondingSourceObject: {fileID: 0}
  m_PrefabInstance: {fileID: 0}
  m_PrefabAsset: {fileID: 0}
  m_GameObject: {fileID: 1789997855053645982}
  m_LocalRotation: {x: 0.13068637, y: 0.21353446, z: -0.072391756, w: 0.96544474}
  m_LocalPosition: {x: 0, y: -0.16, z: 0}
  m_LocalScale: {x: 1, y: 1, z: 1}
  m_Children:
  - {fileID: 1524347515459164215}
  m_Father: {fileID: 0}
  m_RootOrder: 0
  m_LocalEulerAnglesHint: {x: 16.455, y: 24.217001, z: -5.0230002}
--- !u!1001 &5790825599738639149
PrefabInstance:
  m_ObjectHideFlags: 0
  serializedVersion: 2
  m_Modification:
    m_TransformParent: {fileID: 3354056133143296653}
    m_Modifications:
    - target: {fileID: -4216859302048453862, guid: 31eb41dc79322cc4a8c4d4b04bb52a01,
        type: 3}
      propertyPath: m_LocalPosition.x
      value: 0.08424713
      objectReference: {fileID: 0}
    - target: {fileID: -4216859302048453862, guid: 31eb41dc79322cc4a8c4d4b04bb52a01,
        type: 3}
      propertyPath: m_LocalPosition.y
      value: -1.2605599
      objectReference: {fileID: 0}
    - target: {fileID: -4216859302048453862, guid: 31eb41dc79322cc4a8c4d4b04bb52a01,
        type: 3}
      propertyPath: m_LocalPosition.z
      value: 0.38352472
      objectReference: {fileID: 0}
    - target: {fileID: -4216859302048453862, guid: 31eb41dc79322cc4a8c4d4b04bb52a01,
        type: 3}
      propertyPath: m_LocalRotation.x
      value: -0.14919946
      objectReference: {fileID: 0}
    - target: {fileID: -4216859302048453862, guid: 31eb41dc79322cc4a8c4d4b04bb52a01,
        type: 3}
      propertyPath: m_LocalRotation.y
      value: 0.23190257
      objectReference: {fileID: 0}
    - target: {fileID: -4216859302048453862, guid: 31eb41dc79322cc4a8c4d4b04bb52a01,
        type: 3}
      propertyPath: m_LocalRotation.z
      value: 0.007682558
      objectReference: {fileID: 0}
    - target: {fileID: -4216859302048453862, guid: 31eb41dc79322cc4a8c4d4b04bb52a01,
        type: 3}
      propertyPath: m_LocalRotation.w
      value: 0.96119803
      objectReference: {fileID: 0}
    - target: {fileID: -4216859302048453862, guid: 31eb41dc79322cc4a8c4d4b04bb52a01,
        type: 3}
      propertyPath: m_RootOrder
      value: 0
      objectReference: {fileID: 0}
    - target: {fileID: -4216859302048453862, guid: 31eb41dc79322cc4a8c4d4b04bb52a01,
        type: 3}
      propertyPath: m_LocalEulerAnglesHint.x
      value: 0
      objectReference: {fileID: 0}
    - target: {fileID: -4216859302048453862, guid: 31eb41dc79322cc4a8c4d4b04bb52a01,
        type: 3}
      propertyPath: m_LocalEulerAnglesHint.y
      value: 52.072002
      objectReference: {fileID: 0}
    - target: {fileID: -4216859302048453862, guid: 31eb41dc79322cc4a8c4d4b04bb52a01,
        type: 3}
      propertyPath: m_LocalEulerAnglesHint.z
      value: 0
      objectReference: {fileID: 0}
    - target: {fileID: -4216859302048453862, guid: 31eb41dc79322cc4a8c4d4b04bb52a01,
        type: 3}
      propertyPath: m_LocalScale.x
      value: 0.016072875
      objectReference: {fileID: 0}
    - target: {fileID: -4216859302048453862, guid: 31eb41dc79322cc4a8c4d4b04bb52a01,
        type: 3}
      propertyPath: m_LocalScale.y
      value: 0.016072873
      objectReference: {fileID: 0}
    - target: {fileID: -4216859302048453862, guid: 31eb41dc79322cc4a8c4d4b04bb52a01,
        type: 3}
      propertyPath: m_LocalScale.z
      value: 0.016072875
      objectReference: {fileID: 0}
    - target: {fileID: -1504981713932161579, guid: 31eb41dc79322cc4a8c4d4b04bb52a01,
        type: 3}
      propertyPath: m_Materials.Array.data[0]
      value: 
      objectReference: {fileID: 2100000, guid: c04193a917b2af34c826fa52c01dc4c8, type: 2}
    - target: {fileID: -927199367670048503, guid: 31eb41dc79322cc4a8c4d4b04bb52a01,
        type: 3}
      propertyPath: m_Name
      value: DeerHorn
      objectReference: {fileID: 0}
    - target: {fileID: -927199367670048503, guid: 31eb41dc79322cc4a8c4d4b04bb52a01,
        type: 3}
      propertyPath: m_IsActive
      value: 1
      objectReference: {fileID: 0}
    m_RemovedComponents: []
  m_SourcePrefab: {fileID: 100100000, guid: 31eb41dc79322cc4a8c4d4b04bb52a01, type: 3}
--- !u!4 &1524347515459164215 stripped
Transform:
  m_CorrespondingSourceObject: {fileID: -4216859302048453862, guid: 31eb41dc79322cc4a8c4d4b04bb52a01,
    type: 3}
  m_PrefabInstance: {fileID: 5790825599738639149}
  m_PrefabAsset: {fileID: 0}
